<svg width="20" height="20" viewBox="0 0 20 20" fill="none" xmlns="http://www.w3.org/2000/svg">
<path d="M3.33301 5.83398L5.83301 8.33398M16.6663 5.83398L3.33301 5.83398L16.6663 5.83398ZM3.33301 5.83398L5.83301 3.33398L3.33301 5.83398Z" stroke="black" stroke-width="1.25" stroke-linecap="round" stroke-linejoin="round"/>
<path d="M16.6663 14.166L14.1663 16.666M3.33301 14.166H16.6663H3.33301ZM16.6663 14.166L14.1663 11.666L16.6663 14.166Z" stroke="black" stroke-width="1.25" stroke-linecap="round" stroke-linejoin="round"/>
</svg>
